%YAML 1.1
%TAG !u! tag:unity3d.com,2011:
--- !u!1 &6474924906909033915
GameObject:
  m_ObjectHideFlags: 0
  m_CorrespondingSourceObject: {fileID: 0}
  m_PrefabInstance: {fileID: 0}
  m_PrefabAsset: {fileID: 0}
  serializedVersion: 6
  m_Component:
  - component: {fileID: 6474924906909033912}
  - component: {fileID: 6474924906909033913}
  m_Layer: 0
  m_Name: Director
  m_TagString: Untagged
  m_Icon: {fileID: 0}
  m_NavMeshLayer: 0
  m_StaticEditorFlags: 0
  m_IsActive: 1
--- !u!4 &6474924906909033912
Transform:
  m_ObjectHideFlags: 0
  m_CorrespondingSourceObject: {fileID: 0}
  m_PrefabInstance: {fileID: 0}
  m_PrefabAsset: {fileID: 0}
  m_GameObject: {fileID: 6474924906909033915}
  m_LocalRotation: {x: 0, y: 0, z: 0, w: 1}
  m_LocalPosition: {x: 0, y: 0, z: 0}
  m_LocalScale: {x: 1, y: 1, z: 1}
  m_Children: []
  m_Father: {fileID: 0}
  m_RootOrder: 0
  m_LocalEulerAnglesHint: {x: 0, y: 0, z: 0}
--- !u!114 &6474924906909033913
MonoBehaviour:
  m_ObjectHideFlags: 0
  m_CorrespondingSourceObject: {fileID: 0}
  m_PrefabInstance: {fileID: 0}
  m_PrefabAsset: {fileID: 0}
  m_GameObject: {fileID: 6474924906909033915}
  m_Enabled: 1
  m_EditorHideFlags: 0
  m_Script: {fileID: 11500000, guid: 4a4d3e0b3a4970445bd4016378a07ebf, type: 3}
  m_Name: 
  m_EditorClassIdentifier: 
  gameSettings:
    moveTime: 20
    nickNameMaxLength: 13
    roundStartDelay: 5.2
    turnSwitchDelay: 3.2
    cameraAimTime: 0.5
    yOffset: 3.5
    zoomSpeed: 5
    minZoom: 6
    maxZoom: 22
    botNames:
    - Antony
    - John Wick
    - Stan
    - Kyle
    - Batya
    - Jesus
    - Vlad
    - Snowflake
    - Mike
    - George
    - Elon Musk
    - God
    - Batman
    - Hitman
    - Deadpool
  playerSettings:
    startHealth: 100
    moveSpeed: 8
    jumpStrength: 40
    jumpTimer: 0.3
    aimHoldTimer: 3
    aimDistance: 3.65
    launchSpeed: 12
    shellGravityScale: 1
    trajectoryTimeMultilpier: 0.08
    pointsCount: 25
    trajectoryColor: {r: 1, g: 0.6904891, b: 0.25943398, a: 1}
  botsSettings:
    startHealth: 100
    damage: 10
    moveSpeed: 4
    minAccuracy: 2.8
    maxAccuracy: 3.5
    shootDelay: 1
    minShootDistance: 3
    maxShootDistance: 17
    shootPointDestroyDistance: 23
    minShootHeight: 1
    maxShootHeight: 7
  gameMeta: {fileID: 11400000, guid: 4c8970b63a790274f8b819ddaa8a60b2, type: 2}
